QuartoR
…
We notice a trend every 12 months, also there is a drop in the number of validations in august for each year. But for 2020 there is a drop for almost the whole year because of COVID19 (especially the in the CURFEW period).

The covid in 2020 caused a drop of the number of validations which is like an outlier that will affect the data and its seasonality.

library(lubridate)

Attaching package: 'lubridate'

The following objects are masked from 'package:base':

    date, intersect, setdiff, union

final_data

# A tibble: 4,274,003 × 6
# Groups:   ID_REFA_LDA, JOUR [1,657,582]
   ID_REFA_LDA JOUR       LIBELLE_ARRET    Sum_NB_VALD ZdAYEpsg2154 ZdAXEpsg2154
   <chr>       <date>     <chr>                  <dbl>        <dbl>        <dbl>
 1 411281      2017-01-01 LYCEE HENRI SEL…          63      6868624       664446
 2 411281      2017-01-01 LYCEE HENRI SEL…          63      6868564       664461
 3 411281      2017-02-01 LYCEE HENRI SEL…         881      6868624       664446
 4 411281      2017-02-01 LYCEE HENRI SEL…         881      6868564       664461
 5 411281      2017-03-01 LYCEE HENRI SEL…         833      6868624       664446
 6 411281      2017-03-01 LYCEE HENRI SEL…         833      6868564       664461
 7 411281      2017-04-01 LYCEE HENRI SEL…         306      6868624       664446
 8 411281      2017-04-01 LYCEE HENRI SEL…         306      6868564       664461
 9 411281      2017-05-01 LYCEE HENRI SEL…         132      6868624       664446
10 411281      2017-05-01 LYCEE HENRI SEL…         132      6868564       664461
# ℹ 4,273,993 more rows
…
